{
	"name"             : "portal-resultados-claro",
	"script"           : "server.js",
	"instances"        : 1, //0 => 'max'
	"watch"            : true,
	"exec_interpreter" : "node",
	"exec_mode"        : "cluster",
	"env": {
		"NODE_ENV": "production",
	}
}